[HGEFONT]

Bitmap=TNR.png

Char= 0,1,1,10,19,1,1
Char= 1,12,1,10,19,1,1
Char= 2,23,1,10,19,1,1
Char= 3,34,1,10,19,1,1
Char= 4,45,1,10,19,1,1
Char= 5,56,1,10,19,1,1
Char= 6,67,1,10,19,1,1
Char= 7,78,1,10,19,1,1
Char= 8,89,1,10,19,1,1
Char= 9,100,1,10,19,1,1
Char= A,111,1,10,19,1,1
Char= B,122,1,10,19,1,1
Char= C,133,1,10,19,1,1
Char= D,144,1,10,19,1,1
Char= E,155,1,10,19,1,1
Char= F,166,1,10,19,1,1
Char=10,177,1,10,19,1,1
Char=11,188,1,10,19,1,1
Char=12,199,1,10,19,1,1
Char=13,210,1,10,19,1,1
Char=14,221,1,10,19,1,1
Char=15,232,1,10,19,1,1
Char=16,243,1,10,19,1,1
Char=17,1,21,10,19,1,1
Char=18,12,21,10,19,1,1
Char=19,23,21,10,19,1,1
Char=1A,34,21,10,19,1,1
Char=1B,45,21,10,19,1,1
Char=1C,56,21,10,19,1,1
Char=1D,67,21,10,19,1,1
Char=1E,78,21,10,19,1,1
Char=1F,89,21,10,19,1,1
Char=" ",100,21,3,19,-1,2
Char="!",104,21,3,19,1,1
Char=""",108,21,5,19,0,0
Char="#",114,21,10,19,-1,-1
Char="$",125,21,8,19,0,0
Char="%",134,21,14,19,-1,0
Char="&",149,21,13,19,0,-1
Char="'",163,21,3,19,0,0
Char="(",167,21,6,19,0,-1
Char=")",174,21,6,19,-1,0
Char="*",181,21,9,19,0,-1
Char="+",191,21,11,19,-1,-1
Char=",",203,21,4,19,0,0
Char="-",208,21,6,19,0,0
Char=".",215,21,3,19,0,1
Char="/",219,21,6,19,-1,-1
Char="0",226,21,8,19,0,0
Char="1",235,21,6,19,1,1
Char="2",242,21,8,19,0,0
Char="3",1,41,8,19,0,0
Char="4",10,41,9,19,-1,0
Char="5",20,41,8,19,0,0
Char="6",29,41,8,19,0,0
Char="7",38,41,9,19,-1,0
Char="8",48,41,8,19,0,0
Char="9",57,41,8,19,0,0
Char=":",66,41,3,19,0,0
Char=";",70,41,4,19,0,0
Char="<",75,41,9,19,0,0
Char="=",85,41,11,19,-1,-1
Char=">",97,41,9,19,0,0
Char="?",107,41,7,19,0,0
Char="@",115,41,16,19,0,-1
Char="A",132,41,13,19,-1,-1
Char="B",146,41,11,19,-1,0
Char="C",158,41,11,19,0,0
Char="D",170,41,12,19,-1,0
Char="E",183,41,11,19,-1,-1
Char="F",195,41,10,19,-1,0
Char="G",206,41,13,19,0,-2
Char="H",220,41,13,19,-1,-1
Char="I",234,41,7,19,-1,-1
Char="J",242,41,8,19,-1,-1
Char="K",1,61,13,19,-1,0
Char="L",15,61,11,19,-1,-1
Char="M",27,61,16,19,-1,-1
Char="N",44,61,14,19,-1,-1
Char="O",59,61,12,19,0,0
Char="P",72,61,10,19,-1,0
Char="Q",83,61,12,19,0,0
Char="R",96,61,12,19,-1,-1
Char="S",109,61,9,19,0,0
Char="T",119,61,11,19,-1,-1
Char="U",131,61,13,19,-1,-1
Char="V",145,61,13,19,-1,-1
Char="W",159,61,17,19,-1,-1
Char="X",177,61,13,19,-1,-1
Char="Y",191,61,12,19,0,-1
Char="Z",204,61,11,19,-1,-1
Char="[",216,61,5,19,0,0
Char="\",222,61,6,19,-1,-1
Char="]",229,61,5,19,0,0
Char="^",235,61,10,19,-1,-1
Char="_",1,81,10,19,-1,-1
Char="`",12,81,4,19,0,1
Char="a",17,81,8,19,0,-1
Char="b",26,81,9,19,-1,0
Char="c",36,81,7,19,0,0
Char="d",44,81,9,19,0,-1
Char="e",54,81,7,19,0,0
Char="f",62,81,8,19,-1,-3
Char="g",71,81,9,19,-1,-1
Char="h",81,81,9,19,-1,-1
Char="i",91,81,5,19,-1,-1
Char="j",97,81,6,19,-2,0
Char="k",104,81,10,19,-1,-1
Char="l",115,81,5,19,-1,-1
Char="m",121,81,13,19,-1,-1
Char="n",135,81,9,19,-1,-1
Char="o",145,81,8,19,0,0
Char="p",154,81,9,19,-1,0
Char="q",164,81,9,19,0,-1
Char="r",174,81,7,19,-1,-1
Char="s",182,81,6,19,0,0
Char="t",189,81,6,19,-1,-1
Char="u",196,81,9,19,-1,-1
Char="v",206,81,9,19,-1,-1
Char="w",216,81,13,19,-1,-1
Char="x",230,81,9,19,-1,-1
Char="y",240,81,9,19,-1,-1
Char="z",1,101,8,19,-1,-1
Char="{",10,101,6,19,1,0
Char="|",17,101,3,19,0,0
Char="}",21,101,6,19,0,2
Char="~",28,101,11,19,-1,-1
Char=7F,40,101,10,19,1,1
Char=80,51,101,12,19,0,0
Char=81,64,101,11,19,-1,-1
Char=82,76,101,4,19,0,1
Char=83,81,101,8,19,-1,-1
Char=84,90,101,7,19,-1,0
Char=85,98,101,13,19,1,2
Char=86,112,101,9,19,-1,0
Char=87,122,101,7,19,0,0
Char=88,130,101,11,19,-2,-1
Char=89,142,101,17,19,-1,0
Char=8A,160,101,15,19,-1,0
Char=8B,176,101,5,19,0,0
Char=8C,182,101,15,19,-1,0
Char=8D,198,101,12,19,-1,0
Char=8E,211,101,13,19,0,-1
Char=8F,225,101,13,19,-1,-1
Char=90,239,101,8,19,-1,0
Char=91,248,101,4,19,0,1
Char=92,1,121,4,19,0,1
Char=93,6,121,7,19,-1,0
Char=94,14,121,7,19,-1,0
Char=95,22,121,6,19,0,0
Char=96,29,121,10,19,-1,-1
Char=97,40,121,18,19,-1,-1
Char=98,59,121,10,19,1,1
Char=99,70,121,17,19,0,-1
Char=9A,88,121,13,19,-1,0
Char=9B,102,121,5,19,0,0
Char=9C,108,121,12,19,0,0
Char=9D,121,121,9,19,-1,-1
Char=9E,131,121,9,19,-1,-1
Char=9F,141,121,9,19,0,0
Char=A0,151,121,3,19,-1,2
Char=A1,155,121,13,19,-1,-1
Char=A2,169,121,10,19,-1,-1
Char=A3,180,121,8,19,-1,-1
Char=A4,189,121,12,19,-2,-2
Char=A5,202,121,9,19,-1,-1
Char=A6,212,121,3,19,0,0
Char=A7,216,121,8,19,0,0
Char=A8,225,121,11,19,-1,-1
Char=A9,237,121,13,19,0,-1
Char=AA,1,141,11,19,0,0
Char=AB,13,141,8,19,-1,0
Char=AC,22,141,10,19,-1,0
Char=AD,33,141,6,19,0,0
Char=AE,40,141,13,19,0,-1
Char=AF,54,141,7,19,-1,-1
Char=B0,62,141,7,19,0,-1
Char=B1,70,141,11,19,-1,-1
Char=B2,82,141,7,19,-1,-1
Char=B3,90,141,5,19,-1,-1
Char=B4,96,141,7,19,0,-1
Char=B5,104,141,8,19,0,-1
Char=B6,113,141,9,19,-1,-1
Char=B7,123,141,3,19,1,1
Char=B8,127,141,7,19,0,0
Char=B9,135,141,18,19,-2,-1
Char=BA,154,141,8,19,0,-1
Char=BB,163,141,8,19,-1,0
Char=BC,172,141,6,19,-2,0
Char=BD,179,141,9,19,0,0
Char=BE,189,141,6,19,0,0
Char=BF,196,141,5,19,-1,-1
Char=C0,202,141,13,19,-1,-1
Char=C1,216,141,11,19,-1,-1
Char=C2,228,141,11,19,-1,0
Char=C3,240,141,11,19,-1,-1
Char=C4,1,161,12,19,0,-1
Char=C5,14,161,11,19,-1,-1
Char=C6,26,161,17,19,-1,-2
Char=C7,44,161,9,19,-1,0
Char=C8,54,161,13,19,-1,-1
Char=C9,68,161,13,19,-1,-1
Char=CA,82,161,12,19,-1,0
Char=CB,95,161,12,19,0,-1
Char=CC,108,161,16,19,-1,-1
Char=CD,125,161,13,19,-1,-1
Char=CE,139,161,12,19,0,0
Char=CF,152,161,13,19,-1,-1
Char=D0,166,161,10,19,-1,0
Char=D1,177,161,11,19,0,0
Char=D2,189,161,11,19,-1,-1
Char=D3,201,161,13,19,-1,-1
Char=D4,215,161,13,19,0,0
Char=D5,229,161,13,19,-1,-1
Char=D6,1,181,13,19,-1,-1
Char=D7,15,181,12,19,-1,-1
Char=D8,28,181,17,19,-1,-1
Char=D9,46,181,17,19,-1,-1
Char=DA,64,181,12,19,0,-1
Char=DB,77,181,16,19,-1,-1
Char=DC,94,181,11,19,-1,-1
Char=DD,106,181,11,19,0,0
Char=DE,118,181,17,19,-1,0
Char=DF,136,181,12,19,0,-1
Char=E0,149,181,8,19,0,-1
Char=E1,158,181,8,19,0,0
Char=E2,167,181,9,19,-1,0
Char=E3,177,181,8,19,-1,-1
Char=E4,186,181,9,19,-1,0
Char=E5,196,181,7,19,0,0
Char=E6,204,181,11,19,0,0
Char=E7,216,181,7,19,-1,0
Char=E8,224,181,9,19,0,0
Char=E9,234,181,9,19,0,0
Char=EA,244,181,9,19,-1,-1
Char=EB,1,201,9,19,-1,0
Char=EC,11,201,11,19,0,-1
Char=ED,23,201,9,19,0,0
Char=EE,33,201,8,19,0,0
Char=EF,42,201,9,19,0,0
Char=F0,52,201,9,19,-1,0
Char=F1,62,201,7,19,0,0
Char=F2,70,201,9,19,-1,-1
Char=F3,80,201,9,19,-1,-1
Char=F4,90,201,9,19,0,0
Char=F5,100,201,9,19,-1,-1
Char=F6,110,201,9,19,0,0
Char=F7,120,201,9,19,-1,0
Char=F8,130,201,13,19,-1,-1
Char=F9,144,201,13,19,-1,-1
Char=FA,158,201,9,19,-1,0
Char=FB,168,201,11,19,0,0
Char=FC,180,201,8,19,-1,0
Char=FD,189,201,8,19,-1,0
Char=FE,198,201,13,19,-1,0
Char=FF,212,201,9,19,-1,-1
